{
  "no_data_avalable" : "No data available.",
  "errors" : {
    "user": "Sorry, users data is not available.",
    "space": "Sorry, current space data is not available.",
    "assets": "Sorry, current space assets data is not available.",
    "entities": "Sorry, current entities users data is not available.",
    "sidemenu": "Sorry, spaces list is not available."
  }
}